<?xml version="1.0" encoding="UTF-8" standalone="no"?>
<svg
   xmlns:dc="http://purl.org/dc/elements/1.1/"
   xmlns:cc="http://creativecommons.org/ns#"
   xmlns:rdf="http://www.w3.org/1999/02/22-rdf-syntax-ns#"
   xmlns:svg="http://www.w3.org/2000/svg"
   xmlns="http://www.w3.org/2000/svg"
   xmlns:sodipodi="http://sodipodi.sourceforge.net/DTD/sodipodi-0.dtd"
   xmlns:inkscape="http://www.inkscape.org/namespaces/inkscape"
   version="1.1"
   id="Red Piste (EU)"
   viewbox="0 0 599 599"
   width="500"
   height="500"
   inkscape:version="0.48.0 r9654"
   sodipodi:docname="piste-intermediate.svg">
  <metadata
     id="metadata3228">
    <rdf:RDF>
      <cc:Work
         rdf:about="">
        <dc:format>image/svg+xml</dc:format>
        <dc:type
           rdf:resource="http://purl.org/dc/dcmitype/StillImage" />
        <dc:title></dc:title>
      </cc:Work>
    </rdf:RDF>
  </metadata>
  <defs
     id="defs3226" />
  <sodipodi:namedview
     pagecolor="#ffffff"
     bordercolor="#666666"
     borderopacity="1"
     objecttolerance="10"
     gridtolerance="10"
     guidetolerance="10"
     inkscape:pageopacity="0"
     inkscape:pageshadow="2"
     inkscape:window-width="1280"
     inkscape:window-height="953"
     id="namedview3224"
     showgrid="false"
     fit-margin-top="0"
     fit-margin-left="0"
     fit-margin-right="0"
     fit-margin-bottom="0"
     inkscape:zoom="0.44166667"
     inkscape:cx="250"
     inkscape:cy="250"
     inkscape:window-x="0"
     inkscape:window-y="25"
     inkscape:window-maximized="1"
     inkscape:current-layer="Red Piste (EU)" />
  <circle
     id="green_circle"
     cx="300"
     cy="300"
     r="250"
     sodipodi:cx="300"
     sodipodi:cy="300"
     sodipodi:rx="250"
     sodipodi:ry="250"
     style="fill:#ff0000"
     transform="translate(-50,-50)"
     inkscape:export-filename="/home/michael/.gvfs/michael on valluga/My Documents/Maps/pistemaps/pistemap-symbols/piste-intermediate.16.png"
     inkscape:export-xdpi="2.8800001"
     inkscape:export-ydpi="2.8800001" />
</svg>
